{
    "query": "Full Cream Milk",
    "results": [
      {
        "barcode": 9335390000011,
        "product_name": "a2 Milk Full Cream Milk",
        "product_brand": "a2 Milk",
        "current_price": 3.9,
        "product_size": "1L",
        "url": "https://www.woolworths.com.au/shop/productdetails/216872"
      },
      {
        "barcode": 9335390000035,
        "product_name": "a2 Milk Full Cream Milk",
        "product_brand": "a2 Milk",
        "current_price": 6.9,
        "product_size": "2L",
        "url": "https://www.woolworths.com.au/shop/productdetails/208064"
      },
      {
        "barcode": 9335390000141,
        "product_name": "a2 Milk Full Cream Milk",
        "product_brand": "a2 Milk",
        "current_price": 9.9,
        "product_size": "3L",
        "url": "https://www.woolworths.com.au/shop/productdetails/797407"
      },
      {
        "barcode": 9310036048183,
        "product_name": "Farmhouse Gold Full Cream Milk Full Cream Milk",
        "product_brand": "Farmhouse Gold",
        "current_price": 4.95,
        "product_size": "1.5L",
        "url": "https://www.woolworths.com.au/shop/productdetails/405010"
      },
      {
        "barcode": 9310199012717,
        "product_name": "Dairy Farmers Full Cream Milk Full Cream Milk",
        "product_brand": "Dairy Farmers",
        "current_price": 4.95,
        "product_size": "2L",
        "url": "https://www.woolworths.com.au/shop/productdetails/88436"
      },
      {
        "barcode": 9310199011901,
        "product_name": "Dairy Farmers Full Cream Milk Full Cream Milk",
        "product_brand": "Dairy Farmers",
        "current_price": 7.2,
        "product_size": "3L",
        "url": "https://www.woolworths.com.au/shop/productdetails/64746"
      },
      {
        "barcode": 9335390002237,
        "product_name": "a2 Milk Lactose Free Full Cream",
        "product_brand": "a2 Milk",
        "current_price": 3.9,
        "product_size": "1L",
        "url": "https://www.woolworths.com.au/shop/productdetails/248009"
      },
      {
        "barcode": 9421902960239,
        "product_name": "a2 Milk Full Cream Powder UHT",
        "product_brand": "a2 Milk",
        "current_price": 19,
        "product_size": "1kg",
        "url": "https://www.woolworths.com.au/shop/productdetails/855562"
      },
      {
        "barcode": 9335390002244,
        "product_name": "a2 Milk Lactose Free Full Cream",
        "product_brand": "a2 Milk",
        "current_price": 6.9,
        "product_size": "2L",
        "url": "https://www.woolworths.com.au/shop/productdetails/239521"
      },
      {
        "barcode": 9335390002206,
        "product_name": "a2 Milk Full Cream Long Life UHT",
        "product_brand": "a2 Milk",
        "current_price": 3.9,
        "product_size": "1L",
        "url": "https://www.woolworths.com.au/shop/productdetails/207328"
      }
    ],
    "total_results": 2235,
    "total_pages": 224,
    "current_page": 1
  }